{
    "count": 1485,
    "next": "https://safe-transaction.staging.gnosisdev.com/api/v1/safes/0x1230B3d59858296A31053C1b8562Ecf89A2f888b/all-transactions/?executed=false&limit=1&offset=1&ordering=executionDate&queued=false",
    "previous": null,
    "results": [
        {
            "safe": "0x4cb09344de5bCCD45F045c5Defa0E0452869FF0f",
            "to": "0x4cb09344de5bCCD45F045c5Defa0E0452869FF0f",
            "value": "0",
            "data": "0xf8dc5dd900000000000000000000000043386301321e6c6e9f89ebfcb373fb223b0d36dd0000000000000000000000006169b3e26fac6870208e12074d91df7ed124339e0000000000000000000000000000000000000000000000000000000000000003",
            "operation": 0,
            "gasToken": "0x0000000000000000000000000000000000000000",
            "safeTxGas": 60850,
            "baseGas": 0,
            "gasPrice": "0",
            "refundReceiver": "0x0000000000000000000000000000000000000000",
            "nonce": 6,
            "executionDate": "2021-11-30T15:57:49Z",
            "submissionDate": "2021-11-30T15:57:49Z",
            "modified": "2021-11-30T15:57:49Z",
            "blockNumber": 9733629,
            "transactionHash": "0x3250894bebae371b706aafadbd43be15513dc1cefc4ee215c54efabe46c2ad58",
            "safeTxHash": "0x8fb21d8f9612f33978e4b1f20740d65d38c7a6ba33109b8b7af7a5ddfd44eb6a",
            "executor": "0xF2CeA96575d6b10f51d9aF3b10e3e4E5738aa6bd",
            "isExecuted": true,
            "isSuccessful": true,
            "ethGasPrice": "116000000000",
            "gasUsed": 83675,
            "fee": "9706300000000000",
            "origin": null,
            "dataDecoded": {
                "method": "removeOwner",
                "parameters": [
                    {
                        "name": "prevOwner",
                        "type": "address",
                        "value": "0x43386301321E6C6E9F89EBfCB373Fb223b0D36DD"
                    },
                    {
                        "name": "owner",
                        "type": "address",
                        "value": "0x6169b3e26fac6870208e12074d91DF7eD124339e"
                    },
                    {
                        "name": "_threshold",
                        "type": "uint256",
                        "value": "3"
                    }
                ]
            },
            "confirmationsRequired": 4,
            "confirmations": [
                {
                    "owner": "0xF2CeA96575d6b10f51d9aF3b10e3e4E5738aa6bd",
                    "submissionDate": "2021-11-30T15:57:49Z",
                    "transactionHash": null,
                    "signature": "0x000000000000000000000000f2cea96575d6b10f51d9af3b10e3e4e5738aa6bd000000000000000000000000000000000000000000000000000000000000000001",
                    "signatureType": "APPROVED_HASH"
                },
                {
                    "owner": "0x6169b3e26fac6870208e12074d91DF7eD124339e",
                    "submissionDate": "2021-11-30T15:57:49Z",
                    "transactionHash": null,
                    "signature": "0x307e139747ddd256a59817c4388c6f45b6975e03d12cb911776080ba52f06a9d15ba46ec3fc1cd177f14e3ec17e2d9ba2bb12097518f5572c0e39fb48c98f4681f",
                    "signatureType": "ETH_SIGN"
                },
                {
                    "owner": "0x65F8236309e5A99Ff0d129d04E486EBCE20DC7B0",
                    "submissionDate": "2021-11-30T15:57:49Z",
                    "transactionHash": null,
                    "signature": "0x45acfc556ada730db02ed872957f48b925795ed8e6ecc3824f7dff98c49cb687458ad4c5773095356307265da3388eb482cdddf362d254dc2e77c876976678281c",
                    "signatureType": "EOA"
                },
                {
                    "owner": "0x8bc9Ab35a2A8b20ad8c23410C61db69F2e5d8164",
                    "submissionDate": "2021-11-30T15:57:49Z",
                    "transactionHash": null,
                    "signature": "0x97f1627db1aa81f7c8c7065bb62112891403c7e99a0f2984573aac1ebd65236d6a24bb9a01fad196b4619ed3019c3c60fcc74978a417b6adad9c20a96f6e2e491b",
                    "signatureType": "EOA"
                }
            ],
            "signatures": "0x307e139747ddd256a59817c4388c6f45b6975e03d12cb911776080ba52f06a9d15ba46ec3fc1cd177f14e3ec17e2d9ba2bb12097518f5572c0e39fb48c98f4681f45acfc556ada730db02ed872957f48b925795ed8e6ecc3824f7dff98c49cb687458ad4c5773095356307265da3388eb482cdddf362d254dc2e77c876976678281c97f1627db1aa81f7c8c7065bb62112891403c7e99a0f2984573aac1ebd65236d6a24bb9a01fad196b4619ed3019c3c60fcc74978a417b6adad9c20a96f6e2e491b000000000000000000000000f2cea96575d6b10f51d9af3b10e3e4e5738aa6bd000000000000000000000000000000000000000000000000000000000000000001",
            "transfers": [],
            "txType": "MULTISIG_TRANSACTION",
            "trusted": false
        }
    ]
}
